…
``` r
lambda_grid <- grid_regular(penalty(), levels = 40) 
```

Next, we need a set of resampled data to fit and evaluate all these
models.

``` r
set.seed(123)
review_folds <- bootstraps(review_train, strata = rating)
review_folds
```

    ## # Bootstrap sampling using stratification 
    ## # A tibble: 25 x 2
    ##    splits             id         
    ##    <list>             <chr>      
    ##  1 <split [2.2K/812]> Bootstrap01
    ##  2 <split [2.2K/850]> Bootstrap02
    ##  3 <split [2.2K/814]> Bootstrap03
    ##  4 <split [2.2K/814]> Bootstrap04
    ##  5 <split [2.2K/853]> Bootstrap05
    ##  6 <split [2.2K/840]> Bootstrap06
    ##  7 <split [2.2K/816]> Bootstrap07
    ##  8 <split [2.2K/826]> Bootstrap08
    ##  9 <split [2.2K/804]> Bootstrap09
    ## 10 <split [2.2K/809]> Bootstrap10
    ## # ... with 15 more rows
…
